,distance,disparity
0,0,50.556168
1,0,49.071465
2,0,47.910927
3,0,51.85391
4,0,52.99373
5,0,49.67873
6,0,49.937996
7,0,50.4429
8,0,289.25336
9,0,50.71668
10,0,50.50498
11,0,49.865173
12,0,49.09629
13,0,52.373405
14,0,51.449013
15,0,51.946575
16,0,52.59889
17,0,52.056557
18,0,51.46336
19,0,51.00116
20,0,51.2807
21,0,53.36801
22,0,51.69262
23,0,53.73791
24,0,53.238895
25,0,52.436787
26,0,53.084244
27,0,50.14027
28,0,52.168026
29,0,51.9727
30,0,52.235798
31,0,52.431065
32,0,52.199837
33,0,52.19454
34,0,51.159313
35,0,52.168083
36,0,54.452328
37,0,55.50305
38,0,52.70387
39,0,51.814186
40,0,53.546494
41,0,52.326275
42,0,52.348476
43,0,54.451725
44,0,55.075783
45,0,52.959213
46,0,50.829052
47,0,53.892418
48,0,54.675346
49,0,52.472324
50,0,52.18546
51,0,53.5314
52,0,52.061787
53,0,53.041447
54,0,53.06826
0,0,50.556168
1,0,49.071465
2,0,47.910927
3,0,51.85391
4,0,52.99373
5,0,49.67873
6,0,49.937996
7,0,50.4429
8,0,289.25336
9,0,50.71668
10,0,50.50498
11,0,49.865173
12,0,49.09629
13,0,52.373405
14,0,51.449013
15,0,51.946575
16,0,52.59889
17,0,52.056557
18,0,51.46336
19,0,51.00116
20,0,51.2807
21,0,53.36801
22,0,51.69262
23,0,53.73791
24,0,53.238895
25,0,52.436787
26,0,53.084244
27,0,50.14027
28,0,52.168026
29,0,51.9727
30,0,52.235798
31,0,52.431065
32,0,52.199837
33,0,52.19454
34,0,51.159313
35,0,52.168083
36,0,54.452328
37,0,55.50305
38,0,52.70387
39,0,51.814186
40,0,53.546494
41,0,52.326275
42,0,52.348476
43,0,54.451725
44,0,55.075783
45,0,52.959213
46,0,50.829052
47,0,53.892418
48,0,54.675346
49,0,52.472324
50,0,52.18546
51,0,53.5314
52,0,52.061787
53,0,53.041447
54,0,53.06826
