./../../WJ/datasets/disparity/34/211103_171327_171417_34/211103_171327_171417_34_crop/211103_171327_171417_34_000.jpg,0.863,2331,15,2406,36,[2337, 19, 2364, 29, 2398, 19, 2377, 31, 2368, 25]
./../../WJ/datasets/disparity/34/211103_171327_171417_34/211103_171327_171417_34_crop/211103_171327_171417_34_001.jpg,0.905,2353,34,2430,55,[2358, 41, 2384, 51, 2426, 42, 2401, 52, 2391, 45]
./../../WJ/datasets/disparity/34/211103_171327_171417_34/211103_171327_171417_34_crop/211103_171327_171417_34_002.jpg,0.919,2372,55,2450,77,[2378, 63, 2404, 74, 2443, 65, 2421, 75, 2411, 69]
./../../WJ/datasets/disparity/34/211103_171327_171417_34/211103_171327_171417_34_crop/211103_171327_171417_34_003.jpg,0.887,2393,79,2473,100,[2396, 84, 2423, 96, 2467, 84, 2440, 96, 2432, 89]
./../../WJ/datasets/disparity/34/211103_171327_171417_34/211103_171327_171417_34_crop/211103_171327_171417_34_004.jpg,0.911,2403,93,2491,125,[2409, 104, 2438, 116, 2485, 109, 2459, 117, 2447, 111]
./../../WJ/datasets/disparity/34/211103_171327_171417_34/211103_171327_171417_34_crop/211103_171327_171417_34_005.jpg,0.873,2415,104,2505,141,[2418, 114, 2446, 129, 2498, 128, 2467, 132, 2453, 125]
./../../WJ/datasets/disparity/34/211103_171327_171417_34/211103_171327_171417_34_crop/211103_171327_171417_34_006.jpg,0.908,2425,114,2519,156,[2430, 128, 2463, 144, 2513, 140, 2484, 146, 2472, 139]
./../../WJ/datasets/disparity/34/211103_171327_171417_34/211103_171327_171417_34_crop/211103_171327_171417_34_007.jpg,0.925,2428,130,2523,170,[2432, 142, 2460, 158, 2516, 155, 2484, 161, 2471, 153]
./../../WJ/datasets/disparity/34/211103_171327_171417_34/211103_171327_171417_34_crop/211103_171327_171417_34_008.jpg,0.906,2428,143,2527,185,[2438, 161, 2469, 176, 2522, 167, 2494, 176, 2479, 168]
./../../WJ/datasets/disparity/34/211103_171327_171417_34/211103_171327_171417_34_crop/211103_171327_171417_34_009.jpg,0.862,2417,144,2528,198,[2428, 174, 2474, 181, 2511, 166, 2484, 187, 2478, 180]
./../../WJ/datasets/disparity/34/211103_171327_171417_34/211103_171327_171417_34_crop/211103_171327_171417_34_010.jpg,0.903,2398,163,2507,210,[2411, 182, 2452, 197, 2494, 189, 2469, 200, 2455, 192]
./../../WJ/datasets/disparity/34/211103_171327_171417_34/211103_171327_171417_34_crop/211103_171327_171417_34_011.jpg,0.899,2375,175,2477,215,[2374, 188, 2409, 206, 2472, 199, 2434, 208, 2418, 199]
./../../WJ/datasets/disparity/34/211103_171327_171417_34/211103_171327_171417_34_crop/211103_171327_171417_34_012.jpg,0.906,2343,180,2449,223,[2343, 194, 2378, 213, 2443, 206, 2404, 215, 2389, 205]
./../../WJ/datasets/disparity/34/211103_171327_171417_34/211103_171327_171417_34_crop/211103_171327_171417_34_013.jpg,0.526,2309,192,2423,231,[2322, 209, 2360, 222, 2402, 211, 2374, 224, 2361, 214]
./../../WJ/datasets/disparity/34/211103_171327_171417_34/211103_171327_171417_34_crop/211103_171327_171417_34_014.jpg,0.906,2278,197,2391,243,[2345, 232, 2385, 213, 2283, 224, 2325, 227, 2316, 234]
./../../WJ/datasets/disparity/34/211103_171327_171417_34/211103_171327_171417_34_crop/211103_171327_171417_34_015.jpg,0.931,2239,214,2352,254,[2308, 247, 2346, 233, 2243, 234, 2294, 238, 2279, 247]
./../../WJ/datasets/disparity/34/211103_171327_171417_34/211103_171327_171417_34_crop/211103_171327_171417_34_016.jpg,0.907,2197,223,2312,267,[2235, 249, 2273, 253, 2254, 248, 2260, 255, 2244, 253]
./../../WJ/datasets/disparity/34/211103_171327_171417_34/211103_171327_171417_34_crop/211103_171327_171417_34_017.jpg,0.900,2156,232,2278,280,[2228, 270, 2273, 252, 2163, 254, 2216, 260, 2203, 271]
./../../WJ/datasets/disparity/34/211103_171327_171417_34/211103_171327_171417_34_crop/211103_171327_171417_34_018.jpg,0.894,2117,240,2247,294,[2192, 283, 2242, 262, 2119, 268, 2171, 275, 2161, 285]
./../../WJ/datasets/disparity/34/211103_171327_171417_34/211103_171327_171417_34_crop/211103_171327_171417_34_019.jpg,0.935,2080,253,2215,310,[2155, 300, 2205, 275, 2082, 281, 2130, 289, 2123, 302]
./../../WJ/datasets/disparity/34/211103_171327_171417_34/211103_171327_171417_34_crop/211103_171327_171417_34_020.jpg,0.925,2043,277,2170,323,[2118, 315, 2167, 296, 2050, 292, 2105, 303, 2093, 314]
./../../WJ/datasets/disparity/34/211103_171327_171417_34/211103_171327_171417_34_crop/211103_171327_171417_34_021.jpg,0.911,2002,280,2136,332,[2074, 322, 2126, 302, 2011, 298, 2055, 312, 2047, 323]
./../../WJ/datasets/disparity/34/211103_171327_171417_34/211103_171327_171417_34_crop/211103_171327_171417_34_022.jpg,0.930,1966,288,2105,345,[2039, 335, 2094, 309, 1969, 309, 2020, 323, 2011, 334]
./../../WJ/datasets/disparity/34/211103_171327_171417_34/211103_171327_171417_34_crop/211103_171327_171417_34_023.jpg,0.938,1936,308,2078,364,[2018, 358, 2072, 329, 1937, 333, 1997, 342, 1985, 357]
./../../WJ/datasets/disparity/34/211103_171327_171417_34/211103_171327_171417_34_crop/211103_171327_171417_34_024.jpg,0.928,1902,320,2047,379,[1982, 368, 2038, 334, 1912, 343, 1967, 354, 1960, 370]
./../../WJ/datasets/disparity/34/211103_171327_171417_34/211103_171327_171417_34_crop/211103_171327_171417_34_025.jpg,0.889,1859,333,2004,384,[1933, 376, 1987, 352, 1876, 357, 1924, 363, 1911, 377]
./../../WJ/datasets/disparity/34/211103_171327_171417_34/211103_171327_171417_34_crop/211103_171327_171417_34_026.jpg,0.907,1809,338,1951,387,[1811, 357, 1861, 377, 1941, 364, 1888, 380, 1875, 368]
./../../WJ/datasets/disparity/34/211103_171327_171417_34/211103_171327_171417_34_crop/211103_171327_171417_34_027.jpg,0.899,1755,351,1894,396,[1755, 361, 1803, 386, 1889, 369, 1836, 388, 1819, 374]
./../../WJ/datasets/disparity/34/211103_171327_171417_34/211103_171327_171417_34_crop/211103_171327_171417_34_028.jpg,0.945,1696,361,1839,406,[1697, 377, 1750, 401, 1833, 377, 1781, 401, 1768, 386]
./../../WJ/datasets/disparity/34/211103_171327_171417_34/211103_171327_171417_34_crop/211103_171327_171417_34_029.jpg,0.932,1627,383,1777,426,[1632, 396, 1684, 418, 1770, 396, 1719, 418, 1701, 406]
./../../WJ/datasets/disparity/34/211103_171327_171417_34/211103_171327_171417_34_crop/211103_171327_171417_34_030.jpg,0.942,1555,399,1710,452,[1558, 419, 1612, 445, 1706, 426, 1646, 447, 1633, 432]
./../../WJ/datasets/disparity/34/211103_171327_171417_34/211103_171327_171417_34_crop/211103_171327_171417_34_031.jpg,0.929,1484,428,1645,480,[1488, 443, 1545, 469, 1638, 451, 1579, 471, 1564, 456]
./../../WJ/datasets/disparity/34/211103_171327_171417_34/211103_171327_171417_34_crop/211103_171327_171417_34_032.jpg,0.937,1414,456,1578,511,[1497, 503, 1558, 481, 1440, 479, 1492, 493, 1477, 503]
./../../WJ/datasets/disparity/34/211103_171327_171417_34/211103_171327_171417_34_crop/211103_171327_171417_34_033.jpg,0.917,1344,478,1516,541,[1433, 529, 1496, 502, 1370, 507, 1426, 515, 1409, 530]
./../../WJ/datasets/disparity/34/211103_171327_171417_34/211103_171327_171417_34_crop/211103_171327_171417_34_034.jpg,0.906,1270,519,1440,566,[1275, 531, 1336, 560, 1434, 528, 1372, 559, 1354, 542]
./../../WJ/datasets/disparity/34/211103_171327_171417_34/211103_171327_171417_34_crop/211103_171327_171417_34_035.jpg,0.942,1183,543,1362,603,[1188, 563, 1254, 593, 1358, 564, 1292, 595, 1279, 575]
./../../WJ/datasets/disparity/34/211103_171327_171417_34/211103_171327_171417_34_crop/211103_171327_171417_34_036.jpg,0.939,1081,578,1272,640,[1152, 619, 1221, 612, 1160, 599, 1180, 620, 1164, 624]
./../../WJ/datasets/disparity/34/211103_171327_171417_34/211103_171327_171417_34_crop/211103_171327_171417_34_037.jpg,0.862,963,618,1173,682,[1093, 672, 1170, 642, 974, 641, 1070, 656, 1049, 673]
./../../WJ/datasets/disparity/34/211103_171327_171417_34/211103_171327_171417_34_crop/211103_171327_171417_34_038.jpg,0.433,835,667,1070,725,[981, 718, 1065, 682, 847, 685, 955, 697, 929, 718]
./../../WJ/datasets/disparity/34/211103_171327_171417_34/211103_171327_171417_34_crop/211103_171327_171417_34_039.jpg,0.685,739,698,955,763,[865, 753, 952, 712, 750, 708, 844, 728, 828, 754]
./../../WJ/datasets/disparity/34/211103_171327_171417_34/211103_171327_171417_34_crop/211103_171327_171417_34_040.jpg,0.873,604,726,825,783,[736, 776, 819, 737, 610, 739, 711, 752, 689, 775]
./../../WJ/datasets/disparity/34/211103_171327_171417_34/211103_171327_171417_34_crop/211103_171327_171417_34_041.jpg,0.922,464,751,694,816,[582, 806, 670, 777, 490, 761, 577, 788, 552, 807]
./../../WJ/datasets/disparity/34/211103_171327_171417_34/211103_171327_171417_34_crop/211103_171327_171417_34_042.jpg,0.881,314,769,552,820,[431, 814, 513, 800, 368, 786, 439, 805, 408, 816]