./../../WJ/datasets/disparity/34/211115_143944_144110_34/211115_143944_144110_34_crop/211115_143944_144110_34_000.jpg,0.933,1277,471,1445,520,[1279, 480, 1342, 513, 1440, 482, 1378, 513, 1365, 496]
./../../WJ/datasets/disparity/34/211115_143944_144110_34/211115_143944_144110_34_crop/211115_143944_144110_34_001.jpg,0.902,1188,498,1375,548,[1296, 544, 1366, 517, 1201, 509, 1280, 526, 1260, 543]
./../../WJ/datasets/disparity/34/211115_143944_144110_34/211115_143944_144110_34_crop/211115_143944_144110_34_002.jpg,0.936,1100,528,1284,581,[1210, 573, 1279, 543, 1108, 544, 1188, 557, 1170, 574]
./../../WJ/datasets/disparity/34/211115_143944_144110_34/211115_143944_144110_34_crop/211115_143944_144110_34_003.jpg,0.928,994,562,1187,619,[1111, 613, 1183, 580, 999, 577, 1086, 593, 1070, 612]
./../../WJ/datasets/disparity/34/211115_143944_144110_34/211115_143944_144110_34_crop/211115_143944_144110_34_004.jpg,0.921,879,607,1084,667,[1006, 662, 1080, 628, 882, 625, 978, 642, 957, 662]
./../../WJ/datasets/disparity/34/211115_143944_144110_34/211115_143944_144110_34_crop/211115_143944_144110_34_005.jpg,0.659,761,660,972,710,[888, 705, 968, 672, 767, 669, 866, 683, 842, 704]
./../../WJ/datasets/disparity/34/211115_143944_144110_34/211115_143944_144110_34_crop/211115_143944_144110_34_006.jpg,0.592,638,694,852,749,[766, 736, 841, 706, 645, 708, 747, 718, 720, 739]
./../../WJ/datasets/disparity/34/211115_143944_144110_34/211115_143944_144110_34_crop/211115_143944_144110_34_007.jpg,0.888,508,730,730,789,[640, 782, 723, 746, 510, 745, 613, 758, 588, 780]
./../../WJ/datasets/disparity/34/211115_143944_144110_34/211115_143944_144110_34_crop/211115_143944_144110_34_008.jpg,0.908,365,756,600,819,[506, 814, 591, 777, 372, 777, 479, 790, 451, 813]
./../../WJ/datasets/disparity/34/211115_143944_144110_34/211115_143944_144110_34_crop/211115_143944_144110_34_044.jpg,0.581,2545,174,2559,205,[2547, 183, 2556, 183, 2548, 186, 2551, 190, 2550, 191]
./../../WJ/datasets/disparity/34/211115_143944_144110_34/211115_143944_144110_34_crop/211115_143944_144110_34_045.jpg,0.932,2521,176,2558,204,[2525, 184, 2545, 195, 2558, 182, 2550, 196, 2550, 192]
./../../WJ/datasets/disparity/34/211115_143944_144110_34/211115_143944_144110_34_crop/211115_143944_144110_34_046.jpg,0.923,2498,177,2558,201,[2503, 180, 2527, 197, 2559, 181, 2540, 196, 2538, 190]
./../../WJ/datasets/disparity/34/211115_143944_144110_34/211115_143944_144110_34_crop/211115_143944_144110_34_047.jpg,0.917,2474,178,2557,200,[2478, 181, 2508, 196, 2557, 180, 2527, 195, 2521, 188]
./../../WJ/datasets/disparity/34/211115_143944_144110_34/211115_143944_144110_34_crop/211115_143944_144110_34_048.jpg,0.903,2450,175,2539,199,[2451, 177, 2483, 194, 2536, 180, 2503, 195, 2496, 186]
./../../WJ/datasets/disparity/34/211115_143944_144110_34/211115_143944_144110_34_crop/211115_143944_144110_34_049.jpg,0.922,2423,174,2511,198,[2426, 178, 2458, 193, 2509, 179, 2477, 194, 2470, 184]
./../../WJ/datasets/disparity/34/211115_143944_144110_34/211115_143944_144110_34_crop/211115_143944_144110_34_050.jpg,0.935,2393,174,2487,200,[2393, 179, 2428, 195, 2484, 180, 2448, 196, 2440, 187]
./../../WJ/datasets/disparity/34/211115_143944_144110_34/211115_143944_144110_34_crop/211115_143944_144110_34_051.jpg,0.936,2363,177,2455,203,[2366, 180, 2398, 199, 2453, 184, 2417, 200, 2410, 190]
./../../WJ/datasets/disparity/34/211115_143944_144110_34/211115_143944_144110_34_crop/211115_143944_144110_34_052.jpg,0.939,2331,179,2426,205,[2331, 182, 2366, 202, 2422, 187, 2386, 203, 2378, 192]
./../../WJ/datasets/disparity/34/211115_143944_144110_34/211115_143944_144110_34_crop/211115_143944_144110_34_053.jpg,0.935,2297,177,2397,206,[2300, 181, 2335, 201, 2392, 187, 2356, 203, 2347, 192]
./../../WJ/datasets/disparity/34/211115_143944_144110_34/211115_143944_144110_34_crop/211115_143944_144110_34_054.jpg,0.927,2265,179,2366,205,[2311, 200, 2349, 192, 2287, 184, 2314, 195, 2304, 201]
./../../WJ/datasets/disparity/34/211115_143944_144110_34/211115_143944_144110_34_crop/211115_143944_144110_34_055.jpg,0.931,2232,180,2335,208,[2291, 205, 2330, 190, 2235, 186, 2278, 195, 2269, 205]
./../../WJ/datasets/disparity/34/211115_143944_144110_34/211115_143944_144110_34_crop/211115_143944_144110_34_056.jpg,0.935,2194,186,2301,214,[2259, 210, 2298, 192, 2193, 192, 2242, 200, 2234, 210]
./../../WJ/datasets/disparity/34/211115_143944_144110_34/211115_143944_144110_34_crop/211115_143944_144110_34_057.jpg,0.939,2150,194,2259,224,[2217, 222, 2259, 201, 2150, 201, 2202, 209, 2192, 222]
./../../WJ/datasets/disparity/34/211115_143944_144110_34/211115_143944_144110_34_crop/211115_143944_144110_34_058.jpg,0.945,2104,212,2218,242,[2172, 239, 2216, 220, 2104, 218, 2155, 228, 2146, 239]
./../../WJ/datasets/disparity/34/211115_143944_144110_34/211115_143944_144110_34_crop/211115_143944_144110_34_059.jpg,0.938,2054,232,2168,263,[2123, 260, 2167, 241, 2055, 236, 2105, 249, 2097, 259]
./../../WJ/datasets/disparity/34/211115_143944_144110_34/211115_143944_144110_34_crop/211115_143944_144110_34_060.jpg,0.949,2006,249,2125,283,[2076, 281, 2124, 261, 2005, 257, 2058, 270, 2049, 281]
./../../WJ/datasets/disparity/34/211115_143944_144110_34/211115_143944_144110_34_crop/211115_143944_144110_34_061.jpg,0.946,1952,274,2073,306,[2025, 306, 2073, 285, 1952, 281, 2007, 291, 1997, 305]
./../../WJ/datasets/disparity/34/211115_143944_144110_34/211115_143944_144110_34_crop/211115_143944_144110_34_062.jpg,0.949,1899,295,2025,331,[1974, 330, 2023, 309, 1899, 302, 1956, 315, 1944, 328]
./../../WJ/datasets/disparity/34/211115_143944_144110_34/211115_143944_144110_34_crop/211115_143944_144110_34_063.jpg,0.938,1842,316,1973,355,[1905, 343, 1954, 335, 1869, 326, 1907, 339, 1894, 346]
./../../WJ/datasets/disparity/34/211115_143944_144110_34/211115_143944_144110_34_crop/211115_143944_144110_34_064.jpg,0.946,1785,339,1919,379,[1788, 350, 1836, 375, 1914, 355, 1865, 376, 1853, 362]
./../../WJ/datasets/disparity/34/211115_143944_144110_34/211115_143944_144110_34_crop/211115_143944_144110_34_065.jpg,0.941,1724,361,1865,402,[1724, 370, 1776, 396, 1863, 375, 1807, 399, 1795, 384]
./../../WJ/datasets/disparity/34/211115_143944_144110_34/211115_143944_144110_34_crop/211115_143944_144110_34_066.jpg,0.936,1659,386,1804,428,[1660, 399, 1714, 422, 1801, 400, 1746, 423, 1733, 410]
./../../WJ/datasets/disparity/34/211115_143944_144110_34/211115_143944_144110_34_crop/211115_143944_144110_34_067.jpg,0.937,1590,412,1740,457,[1591, 425, 1646, 453, 1738, 426, 1681, 454, 1668, 438]
./../../WJ/datasets/disparity/34/211115_143944_144110_34/211115_143944_144110_34_crop/211115_143944_144110_34_068.jpg,0.938,1519,438,1672,483,[1519, 449, 1576, 478, 1670, 453, 1610, 478, 1596, 462]
./../../WJ/datasets/disparity/34/211115_143944_144110_34/211115_143944_144110_34_crop/211115_143944_144110_34_069.jpg,0.918,1440,469,1599,515,[1440, 483, 1501, 511, 1595, 478, 1535, 510, 1521, 494]
./../../WJ/datasets/disparity/34/211115_143944_144110_34/211115_143944_144110_34_crop/211115_143944_144110_34_070.jpg,0.919,1349,497,1518,545,[1351, 507, 1412, 540, 1514, 513, 1449, 541, 1434, 521]
./../../WJ/datasets/disparity/34/211115_143944_144110_34/211115_143944_144110_34_crop/211115_143944_144110_34_071.jpg,0.912,1256,535,1431,585,[1260, 551, 1325, 580, 1428, 547, 1364, 580, 1347, 563]
./../../WJ/datasets/disparity/34/211115_143944_144110_34/211115_143944_144110_34_crop/211115_143944_144110_34_072.jpg,0.917,1154,577,1335,630,[1260, 621, 1328, 593, 1165, 591, 1242, 607, 1226, 622]
./../../WJ/datasets/disparity/34/211115_143944_144110_34/211115_143944_144110_34_crop/211115_143944_144110_34_073.jpg,0.877,1031,620,1252,679,[1161, 673, 1245, 641, 1034, 630, 1134, 652, 1111, 672]
./../../WJ/datasets/disparity/34/211115_143944_144110_34/211115_143944_144110_34_crop/211115_143944_144110_34_074.jpg,0.655,915,666,1113,720,[1033, 713, 1106, 681, 921, 678, 1012, 694, 988, 714]
./../../WJ/datasets/disparity/34/211115_143944_144110_34/211115_143944_144110_34_crop/211115_143944_144110_34_075.jpg,0.568,775,707,1000,762,[903, 757, 987, 718, 782, 714, 882, 730, 857, 757]
./../../WJ/datasets/disparity/34/211115_143944_144110_34/211115_143944_144110_34_crop/211115_143944_144110_34_077.jpg,0.941,497,755,723,816,[633, 809, 717, 772, 501, 768, 605, 783, 580, 807]
./../../WJ/datasets/disparity/34/211115_143944_144110_34/211115_143944_144110_34_crop/211115_143944_144110_34_078.jpg,0.483,347,767,559,819,[481, 820, 554, 793, 352, 795, 453, 803, 425, 820]