./../../WJ/datasets/disparity/34/211222_123637_125837_34/211222_123637_125837_34_crop/211222_123637_125837_34_010.jpg,0.923,2429,7,2519,31,[2432, 11, 2464, 28, 2516, 12, 2484, 28, 2477, 19]
./../../WJ/datasets/disparity/34/211222_123637_125837_34/211222_123637_125837_34_crop/211222_123637_125837_34_011.jpg,0.932,2420,23,2511,47,[2428, 32, 2460, 42, 2502, 28, 2476, 44, 2467, 37]
./../../WJ/datasets/disparity/34/211222_123637_125837_34/211222_123637_125837_34_crop/211222_123637_125837_34_012.jpg,0.931,2406,38,2499,63,[2424, 48, 2458, 53, 2473, 44, 2460, 57, 2452, 52]
./../../WJ/datasets/disparity/34/211222_123637_125837_34/211222_123637_125837_34_crop/211222_123637_125837_34_013.jpg,0.931,2387,53,2484,79,[2401, 62, 2434, 72, 2465, 59, 2445, 74, 2435, 68]
./../../WJ/datasets/disparity/34/211222_123637_125837_34/211222_123637_125837_34_crop/211222_123637_125837_34_014.jpg,0.937,2366,73,2465,101,[2372, 82, 2408, 95, 2458, 78, 2427, 95, 2417, 87]
./../../WJ/datasets/disparity/34/211222_123637_125837_34/211222_123637_125837_34_crop/211222_123637_125837_34_015.jpg,0.937,2341,97,2441,125,[2347, 106, 2385, 119, 2433, 102, 2402, 119, 2393, 112]
./../../WJ/datasets/disparity/34/211222_123637_125837_34/211222_123637_125837_34_crop/211222_123637_125837_34_016.jpg,0.936,2310,121,2413,149,[2316, 128, 2354, 144, 2405, 128, 2372, 145, 2362, 136]
./../../WJ/datasets/disparity/34/211222_123637_125837_34/211222_123637_125837_34_crop/211222_123637_125837_34_017.jpg,0.931,2276,148,2381,176,[2325, 168, 2365, 159, 2303, 153, 2329, 165, 2320, 169]
./../../WJ/datasets/disparity/34/211222_123637_125837_34/211222_123637_125837_34_crop/211222_123637_125837_34_018.jpg,0.933,2244,166,2352,195,[2310, 192, 2349, 173, 2246, 171, 2294, 180, 2285, 192]
./../../WJ/datasets/disparity/34/211222_123637_125837_34/211222_123637_125837_34_crop/211222_123637_125837_34_019.jpg,0.943,2212,179,2321,208,[2279, 205, 2318, 184, 2215, 187, 2265, 193, 2255, 205]
./../../WJ/datasets/disparity/34/211222_123637_125837_34/211222_123637_125837_34_crop/211222_123637_125837_34_020.jpg,0.948,2177,190,2289,223,[2244, 219, 2285, 195, 2178, 203, 2229, 207, 2219, 220]
./../../WJ/datasets/disparity/34/211222_123637_125837_34/211222_123637_125837_34_crop/211222_123637_125837_34_021.jpg,0.942,2135,210,2249,239,[2204, 235, 2247, 214, 2136, 215, 2188, 224, 2179, 235]
./../../WJ/datasets/disparity/34/211222_123637_125837_34/211222_123637_125837_34_crop/211222_123637_125837_34_022.jpg,0.938,2088,226,2207,257,[2160, 254, 2204, 234, 2088, 231, 2142, 241, 2131, 254]
./../../WJ/datasets/disparity/34/211222_123637_125837_34/211222_123637_125837_34_crop/211222_123637_125837_34_023.jpg,0.946,2039,246,2161,278,[2113, 275, 2159, 254, 2042, 255, 2097, 262, 2086, 275]
./../../WJ/datasets/disparity/34/211222_123637_125837_34/211222_123637_125837_34_crop/211222_123637_125837_34_024.jpg,0.945,1992,267,2116,300,[2067, 297, 2112, 275, 1993, 275, 2049, 283, 2037, 296]
./../../WJ/datasets/disparity/34/211222_123637_125837_34/211222_123637_125837_34_crop/211222_123637_125837_34_025.jpg,0.945,1940,290,2069,325,[2018, 319, 2064, 297, 1942, 296, 2000, 306, 1988, 319]
./../../WJ/datasets/disparity/34/211222_123637_125837_34/211222_123637_125837_34_crop/211222_123637_125837_34_026.jpg,0.946,1887,309,2022,351,[1968, 343, 2017, 318, 1889, 322, 1950, 331, 1939, 344]
./../../WJ/datasets/disparity/34/211222_123637_125837_34/211222_123637_125837_34_crop/211222_123637_125837_34_027.jpg,0.930,1832,340,1968,376,[1851, 351, 1900, 367, 1939, 348, 1912, 368, 1899, 358]
./../../WJ/datasets/disparity/34/211222_123637_125837_34/211222_123637_125837_34_crop/211222_123637_125837_34_028.jpg,0.950,1774,367,1915,405,[1777, 379, 1830, 401, 1908, 376, 1861, 400, 1848, 386]
./../../WJ/datasets/disparity/34/211222_123637_125837_34/211222_123637_125837_34_crop/211222_123637_125837_34_029.jpg,0.941,1720,403,1853,440,[1724, 413, 1770, 433, 1844, 412, 1799, 434, 1786, 421]
./../../WJ/datasets/disparity/34/211222_123637_125837_34/211222_123637_125837_34_crop/211222_123637_125837_34_030.jpg,0.945,1653,432,1796,475,[1658, 446, 1710, 467, 1787, 444, 1738, 468, 1726, 456]
./../../WJ/datasets/disparity/34/211222_123637_125837_34/211222_123637_125837_34_crop/211222_123637_125837_34_031.jpg,0.937,1583,459,1734,502,[1585, 470, 1641, 497, 1732, 471, 1676, 498, 1663, 481]
./../../WJ/datasets/disparity/34/211222_123637_125837_34/211222_123637_125837_34_crop/211222_123637_125837_34_032.jpg,0.918,1511,482,1671,525,[1517, 492, 1577, 518, 1664, 493, 1609, 519, 1595, 503]
./../../WJ/datasets/disparity/34/211222_123637_125837_34/211222_123637_125837_34_crop/211222_123637_125837_34_033.jpg,0.915,1444,496,1608,540,[1449, 507, 1509, 535, 1598, 510, 1542, 535, 1527, 518]
./../../WJ/datasets/disparity/34/211222_123637_125837_34/211222_123637_125837_34_crop/211222_123637_125837_34_034.jpg,0.930,1374,502,1542,548,[1378, 513, 1440, 542, 1534, 515, 1476, 544, 1459, 525]
./../../WJ/datasets/disparity/34/211222_123637_125837_34/211222_123637_125837_34_crop/211222_123637_125837_34_035.jpg,0.924,1301,518,1472,569,[1408, 563, 1470, 529, 1304, 536, 1385, 547, 1370, 564]
./../../WJ/datasets/disparity/34/211222_123637_125837_34/211222_123637_125837_34_crop/211222_123637_125837_34_036.jpg,0.914,1219,547,1400,602,[1329, 596, 1396, 561, 1223, 563, 1306, 576, 1291, 597]
./../../WJ/datasets/disparity/34/211222_123637_125837_34/211222_123637_125837_34_crop/211222_123637_125837_34_037.jpg,0.928,1129,578,1313,635,[1239, 629, 1310, 597, 1130, 592, 1216, 609, 1198, 628]
./../../WJ/datasets/disparity/34/211222_123637_125837_34/211222_123637_125837_34_crop/211222_123637_125837_34_041.jpg,0.893,704,710,922,769,[738, 733, 814, 760, 884, 729, 837, 762, 813, 745]
./../../WJ/datasets/disparity/34/211222_123637_125837_34/211222_123637_125837_34_crop/211222_123637_125837_34_044.jpg,0.457,317,754,573,819,[358, 779, 445, 806, 512, 771, 464, 808, 434, 790]