./../../WJ/datasets/disparity/34/211208_150644_163510_34/211208_150644_163510_34_crop/211208_150644_163510_34_027.jpg,0.825,2538,193,2558,228,[2540, 205, 2554, 210, 2556, 207, 2559, 215, 2554, 212]
./../../WJ/datasets/disparity/34/211208_150644_163510_34/211208_150644_163510_34_crop/211208_150644_163510_34_028.jpg,0.879,2504,193,2559,231,[2515, 210, 2540, 219, 2554, 208, 2551, 222, 2546, 218]
./../../WJ/datasets/disparity/34/211208_150644_163510_34/211208_150644_163510_34_crop/211208_150644_163510_34_029.jpg,0.881,2466,197,2559,236,[2477, 215, 2511, 230, 2559, 212, 2539, 229, 2528, 221]
./../../WJ/datasets/disparity/34/211208_150644_163510_34/211208_150644_163510_34_crop/211208_150644_163510_34_030.jpg,0.942,2423,202,2545,242,[2429, 222, 2471, 234, 2540, 224, 2502, 234, 2485, 227]
./../../WJ/datasets/disparity/34/211208_150644_163510_34/211208_150644_163510_34_crop/211208_150644_163510_34_031.jpg,0.938,2376,208,2504,247,[2380, 226, 2423, 239, 2498, 228, 2457, 239, 2440, 230]
./../../WJ/datasets/disparity/34/211208_150644_163510_34/211208_150644_163510_34_crop/211208_150644_163510_34_032.jpg,0.939,2326,215,2457,255,[2330, 235, 2376, 250, 2453, 235, 2410, 250, 2393, 240]
./../../WJ/datasets/disparity/34/211208_150644_163510_34/211208_150644_163510_34_crop/211208_150644_163510_34_033.jpg,0.934,2274,229,2408,274,[2299, 256, 2343, 263, 2377, 256, 2355, 265, 2337, 260]
./../../WJ/datasets/disparity/34/211208_150644_163510_34/211208_150644_163510_34_crop/211208_150644_163510_34_034.jpg,0.932,2216,253,2355,295,[2272, 282, 2318, 283, 2279, 277, 2294, 284, 2277, 285]
./../../WJ/datasets/disparity/34/211208_150644_163510_34/211208_150644_163510_34_crop/211208_150644_163510_34_035.jpg,0.931,2159,274,2304,319,[2249, 311, 2299, 299, 2163, 297, 2231, 302, 2211, 311]
./../../WJ/datasets/disparity/34/211208_150644_163510_34/211208_150644_163510_34_crop/211208_150644_163510_34_036.jpg,0.934,2100,295,2249,342,[2193, 334, 2243, 319, 2105, 321, 2173, 326, 2154, 334]
./../../WJ/datasets/disparity/34/211208_150644_163510_34/211208_150644_163510_34_crop/211208_150644_163510_34_037.jpg,0.928,2033,317,2189,366,[2131, 359, 2185, 346, 2039, 343, 2111, 350, 2091, 358]
./../../WJ/datasets/disparity/34/211208_150644_163510_34/211208_150644_163510_34_crop/211208_150644_163510_34_038.jpg,0.932,1967,338,2131,390,[2069, 383, 2125, 363, 1971, 369, 2047, 373, 2026, 384]
./../../WJ/datasets/disparity/34/211208_150644_163510_34/211208_150644_163510_34_crop/211208_150644_163510_34_039.jpg,0.933,1893,360,2066,416,[2002, 408, 2060, 386, 1899, 395, 1979, 398, 1957, 410]
./../../WJ/datasets/disparity/34/211208_150644_163510_34/211208_150644_163510_34_crop/211208_150644_163510_34_040.jpg,0.937,1812,390,1988,447,[1923, 440, 1982, 414, 1817, 424, 1896, 426, 1876, 442]
./../../WJ/datasets/disparity/34/211208_150644_163510_34/211208_150644_163510_34_crop/211208_150644_163510_34_041.jpg,0.934,1716,422,1911,482,[1813, 470, 1880, 450, 1759, 453, 1818, 459, 1793, 471]
./../../WJ/datasets/disparity/34/211208_150644_163510_34/211208_150644_163510_34_crop/211208_150644_163510_34_042.jpg,0.936,1609,459,1806,517,[1615, 487, 1683, 508, 1802, 490, 1734, 510, 1710, 495]
./../../WJ/datasets/disparity/34/211208_150644_163510_34/211208_150644_163510_34_crop/211208_150644_163510_34_043.jpg,0.930,1497,495,1706,556,[1503, 526, 1575, 549, 1700, 526, 1631, 549, 1602, 532]
./../../WJ/datasets/disparity/34/211208_150644_163510_34/211208_150644_163510_34_crop/211208_150644_163510_34_044.jpg,0.934,1368,537,1588,600,[1377, 572, 1454, 595, 1584, 564, 1513, 593, 1484, 576]
./../../WJ/datasets/disparity/34/211208_150644_163510_34/211208_150644_163510_34_crop/211208_150644_163510_34_045.jpg,0.911,1224,585,1456,651,[1227, 619, 1309, 643, 1453, 619, 1372, 644, 1341, 626]
./../../WJ/datasets/disparity/34/211208_150644_163510_34/211208_150644_163510_34_crop/211208_150644_163510_34_046.jpg,0.757,1033,635,1314,703,[1189, 689, 1286, 668, 1080, 665, 1185, 675, 1146, 688]
./../../WJ/datasets/disparity/34/211208_150644_163510_34/211208_150644_163510_34_crop/211208_150644_163510_34_047.jpg,0.719,906,681,1150,747,[1059, 739, 1145, 712, 913, 712, 1031, 718, 996, 739]